{
  "images" : [
    {
      "idiom" : "universal",
      "scale" : "1x"
    },
    {
      "resizing" : {
        "mode" : "3-part-vertical",
        "center" : {
          "mode" : "stretch",
          "height" : 396
        },
        "cap-insets" : {
          "top" : 79,
          "bottom" : 77
        }
      },
      "idiom" : "universal",
      "filename" : "setlist_image.png",
      "scale" : "2x"
    },
    {
      "idiom" : "universal",
      "scale" : "3x"
    }
  ],
  "info" : {
    "version" : 1,
    "author" : "xcode"
  }
}